<COLLADA xmlns="http://www.collada.org/2008/03/COLLADASchema" version="1.5.0">
  <asset>
    <contributor>
      <author>Blender User</author>
      <authoring_tool>Blender 2.73.0 commit date:2015-01-07, commit time:13:17, hash:b4d8fb5</authoring_tool>
    </contributor>
    <created>2015-01-24T01:14:43</created>
    <modified>2015-01-24T01:14:43</modified>
    <unit meter="1" name="meter" />
    <up_axis>Z_UP</up_axis>
  </asset>
  <library_cameras>
    <camera id="Camera-camera" name="Camera">
      <optics>
        <technique_common>
          <perspective>
            <xfov sid="xfov">49.13434</xfov>
            <aspect_ratio>1.777778</aspect_ratio>
            <znear sid="znear">0.1</znear>
            <zfar sid="zfar">100</zfar>
          </perspective>
        </technique_common>
      </optics>
      <extra>
        <technique profile="blender">
          <YF_dofdist>0</YF_dofdist>
          <shiftx>0</shiftx>
          <shifty>0</shifty>
        </technique>
      </extra>
    </camera>
  </library_cameras>
  <library_lights>
    <light id="Lamp-light" name="Lamp">
      <technique_common>
        <point>
          <color sid="color">1 1 1</color>
          <constant_attenuation>1</constant_attenuation>
          <linear_attenuation>0</linear_attenuation>
          <quadratic_attenuation>0.00111109</quadratic_attenuation>
        </point>
      </technique_common>
      <extra>
        <technique profile="blender">
          <adapt_thresh>0.000999987</adapt_thresh>
          <area_shape>1</area_shape>
          <area_size>0.1</area_size>
          <area_sizey>0.1</area_sizey>
          <area_sizez>1</area_sizez>
          <atm_distance_factor>1</atm_distance_factor>
          <atm_extinction_factor>1</atm_extinction_factor>
          <atm_turbidity>2</atm_turbidity>
          <att1>0</att1>
          <att2>1</att2>
          <backscattered_light>1</backscattered_light>
          <bias>1</bias>
          <blue>1</blue>
          <buffers>1</buffers>
          <bufflag>0</bufflag>
          <bufsize>2880</bufsize>
          <buftype>2</buftype>
          <clipend>30.002</clipend>
          <clipsta>1.000799</clipsta>
          <compressthresh>0.04999995</compressthresh>
          <dist sid="blender_dist">29.99998</dist>
          <energy sid="blender_energy">1</energy>
          <falloff_type>2</falloff_type>
          <filtertype>0</filtertype>
          <flag>0</flag>
          <gamma sid="blender_gamma">1</gamma>
          <green>1</green>
          <halo_intensity sid="blnder_halo_intensity">1</halo_intensity>
          <horizon_brightness>1</horizon_brightness>
          <mode>8192</mode>
          <ray_samp>1</ray_samp>
          <ray_samp_method>1</ray_samp_method>
          <ray_samp_type>0</ray_samp_type>
          <ray_sampy>1</ray_sampy>
          <ray_sampz>1</ray_sampz>
          <red>1</red>
          <samp>3</samp>
          <shadhalostep>0</shadhalostep>
          <shadow_b sid="blender_shadow_b">0</shadow_b>
          <shadow_g sid="blender_shadow_g">0</shadow_g>
          <shadow_r sid="blender_shadow_r">0</shadow_r>
          <sky_colorspace>0</sky_colorspace>
          <sky_exposure>1</sky_exposure>
          <skyblendfac>1</skyblendfac>
          <skyblendtype>1</skyblendtype>
          <soft>3</soft>
          <spotblend>0.15</spotblend>
          <spotsize>75</spotsize>
          <spread>1</spread>
          <sun_brightness>1</sun_brightness>
          <sun_effect_type>0</sun_effect_type>
          <sun_intensity>1</sun_intensity>
          <sun_size>1</sun_size>
          <type>0</type>
        </technique>
      </extra>
    </light>
  </library_lights>
  <library_images />
  <library_geometries>
    <geometry id="Cube_001-mesh" name="Cube.001">
      <mesh>
        <source id="Cube_001-mesh-positions">
          <float_array count="24" id="Cube_001-mesh-positions-array">-1 -1 -1 -1 1 -1 1 1 -1 1 -1 -1 -1 -1 1 -1 1 1 1 1 1 1 -1 1</float_array>
          <technique_common>
            <accessor count="8" source="#Cube_001-mesh-positions-array" stride="3">
              <param name="X" type="float" />
              <param name="Y" type="float" />
              <param name="Z" type="float" />
            </accessor>
          </technique_common>
        </source>
        <source id="Cube_001-mesh-normals">
          <float_array count="36" id="Cube_001-mesh-normals-array">-1 0 0 0 1 0 1 0 0 0 -1 0 0 0 -1 0 0 1 -1 0 0 0 1 0 1 0 0 0 -1 0 0 0 -1 0 0 1</float_array>
          <technique_common>
            <accessor count="12" source="#Cube_001-mesh-normals-array" stride="3">
              <param name="X" type="float" />
              <param name="Y" type="float" />
              <param name="Z" type="float" />
            </accessor>
          </technique_common>
        </source>
        <vertices id="Cube_001-mesh-vertices">
          <input semantic="POSITION" source="#Cube_001-mesh-positions" />
        </vertices>
        <polylist count="12">
          <input offset="0" semantic="VERTEX" source="#Cube_001-mesh-vertices" />
          <input offset="1" semantic="NORMAL" source="#Cube_001-mesh-normals" />
          <vcount>3 3 3 3 3 3 3 3 3 3 3 3 </vcount>
          <p>5 0 1 0 0 0 6 1 2 1 1 1 7 2 3 2 2 2 4 3 0 3 3 3 1 4 2 4 3 4 6 5 5 5 4 5 4 6 5 6 0 6 5 7 6 7 1 7 6 8 7 8 2 8 7 9 4 9 3 9 0 10 1 10 3 10 7 11 6 11 4 11</p>
        </polylist>
      </mesh>
    </geometry>
  </library_geometries>
  <library_controllers />
  <library_visual_scenes>
    <visual_scene id="Scene" name="Scene">
      <node id="Camera" name="Camera" type="NODE">
        <matrix sid="transform">0.6858805 -0.3173701 0.6548619 7.481132 0.7276338 0.3124686 -0.6106656 -6.50764 -0.01081678 0.8953432 0.4452454 5.343665 0 0 0 1</matrix>
        <instance_camera url="#Camera-camera" />
      </node>
      <node id="Lamp" name="Lamp" type="NODE">
        <matrix sid="transform">-0.2908646 -0.7711008 0.5663932 4.076245 0.9551712 -0.1998834 0.2183912 1.005454 -0.05518906 0.6045247 0.7946723 5.903862 0 0 0 1</matrix>
        <instance_light url="#Lamp-light" />
      </node>
      <node id="barricade_1" name="barricade_1" type="NODE">
        <matrix sid="transform">1 0 0 0 0 1 0 0 0 0 1 0 0 0 0 1</matrix>
        <node id="root_1" name="root_1" sid="root_1" type="JOINT">
          <matrix sid="transform">1 0 0 0 0 1 0 0 0 0 1 0 0 0 0 1</matrix>
          <node id="barricade_1_vis" name="barricade_1_vis" type="NODE">
            <matrix sid="Inverted">1.0 -0.0 0.0 -0.0 -0.0 1.0 -0.0 0.0 0.0 -0.0 1.0 -0.0 -0.0 0.0 -0.0 1.0</matrix><matrix sid="transform">2.92061e-8 -0.111 0 0 0.15 2.16125e-8 0 0 0 0 0.047 0.047 0 0 0 1</matrix>
            <instance_geometry url="#Cube_001-mesh" />
          </node>
          <node id="MARKER_1_1" name="MARKER_1_1" type="NODE">
            <matrix sid="transform">1 0 0 0.1047988 0 1 0 -0.1410722 0 0 1 0.1012778 0 0 0 1</matrix>
          </node>
          <node id="MARKER_1_2" name="MARKER_1_2" type="NODE">
            <matrix sid="transform">1 0 0 -0.1021529 0 1 0 0.1397157 0 0 1 0.09560727 0 0 0 1</matrix>
          </node>
          <node id="MARKER_1_3" name="MARKER_1_3" type="NODE">
            <matrix sid="transform">1 0 0 0.1033063 0 1 0 0.1389714 0 0 1 0.09998488 0 0 0 1</matrix>
          </node>
          <node id="MARKER_1_4" name="MARKER_1_4" type="NODE">
            <matrix sid="transform">1 0 0 -0.1013293 0 1 0 -0.1418588 0 0 1 0.09984755 0 0 0 1</matrix>
          </node>
        </node>
      </node>
    </visual_scene>
  </library_visual_scenes>
  <library_kinematics_scenes><kinematics_scene id="barricade_1_kinematics_scene"><instance_articulated_system sid="inst_barricade_1_motion" url="#barricade_1_motion"><bind symbol="barricade_1_kinematics_scene@barricade_1_motion@barricade_1_kinematics@inst_barricade_1_kinematics_model"><param ref="barricade_1_motion/barricade_1_motion@barricade_1_kinematics@inst_barricade_1_kinematics_model" /></bind><bind symbol="barricade_1_kinematics_scene@barricade_1_motion@barricade_1_kinematics@inst_barricade_1_kinematics_model@inst_root_1_joint@axis0"><param ref="barricade_1_motion/barricade_1_motion@barricade_1_kinematics@inst_barricade_1_kinematics_model@inst_root_1_joint@axis0" /></bind><bind symbol="barricade_1_kinematics_scene@barricade_1_motion@barricade_1_kinematics@inst_barricade_1_kinematics_model@inst_root_1_joint_value"><param ref="barricade_1_motion/barricade_1_motion@barricade_1_kinematics@inst_barricade_1_kinematics_model@inst_root_1_joint_value" /></bind></instance_articulated_system></kinematics_scene></library_kinematics_scenes><library_kinematics_models><kinematics_model id="barricade_1_kinematics_model"><technique_common><instance_joint sid="inst_root_1_joint" url="#root_1_joint" /><link name="barricade_1_root_link" sid="barricade_1_root_link"><attachment_full joint="barricade_1_kinematics_model/inst_root_1_joint"><translate>0.0 0.0 0.0</translate><rotate>0 0 1 0.0</rotate><rotate>0 1 0 -0.0</rotate><rotate>1 0 0 0.0</rotate><link name="root_1_link" sid="root_1_link" /></attachment_full></link></technique_common></kinematics_model></library_kinematics_models><library_articulated_systems><articulated_system id="barricade_1_kinematics"><kinematics><instance_kinematics_model sid="inst_barricade_1_kinematics_model" url="#barricade_1_kinematics_model"><newparam sid="barricade_1_kinematics@inst_barricade_1_kinematics_model"><SIDREF>barricade_1_kinematics/inst_barricade_1_kinematics_model</SIDREF></newparam><newparam sid="barricade_1_kinematics@inst_barricade_1_kinematics_model@inst_root_1_joint@axis0"><SIDREF>barricade_1_kinematics/inst_barricade_1_kinematics_model/inst_root_1_joint/axis0</SIDREF></newparam><newparam sid="barricade_1_kinematics@inst_barricade_1_kinematics_model@inst_root_1_joint_value"><float>0.0</float></newparam></instance_kinematics_model><technique_common><axis_info axis="barricade_1_kinematics_model/inst_root_1_joint/axis0" sid="inst_root_1_joint_info"><active><bool>True</bool></active><locked><bool>False</bool></locked><limits><min><float>0.0</float></min><max><float>0.0</float></max></limits></axis_info></technique_common></kinematics></articulated_system><articulated_system id="barricade_1_motion"><motion><instance_articulated_system sid="inst_barricade_1_kinematics" url="#barricade_1_kinematics"><newparam sid="barricade_1_motion@barricade_1_kinematics@inst_barricade_1_kinematics_model"><SIDREF>barricade_1_kinematics/barricade_1_kinematics@inst_barricade_1_kinematics_model</SIDREF></newparam><newparam sid="barricade_1_motion@barricade_1_kinematics@inst_barricade_1_kinematics_model@inst_root_1_joint@axis0"><SIDREF>barricade_1_kinematics/barricade_1_kinematics@inst_barricade_1_kinematics_model@inst_root_1_joint@axis0</SIDREF></newparam><newparam sid="barricade_1_motion@barricade_1_kinematics@inst_barricade_1_kinematics_model@inst_root_1_joint_value"><SIDREF>barricade_1_kinematics/barricade_1_kinematics@inst_barricade_1_kinematics_model@inst_root_1_joint_value</SIDREF></newparam></instance_articulated_system><technique_common><axis_info axis="barricade_1_kinematics/inst_root_1_joint_info"><speed><float>0.0</float></speed><acceleration><float>0.0</float></acceleration><deceleration><float>0.0</float></deceleration><jerk><float>0.0</float></jerk></axis_info></technique_common></motion><extra type="manipulator"><technique profile="OpenRAVE"><frame_origin link="barricade_1_kinematics_model/barricade_1_root_link" /><frame_origin link="barricade_1_kinematics_model/barricade_1_root_link" /><frame_tip link="barricade_1_kinematics_model/root_1_link" /></technique></extra><extra name="MARKER_1_1" type="attach_sensor"><technique profile="OpenRAVE"><frame_origin link="barricade_1_kinematics_model/root_1_link"><translate>0.1047988012433052 -0.14107224345207214 0.10127779841423035</translate></frame_origin><instance_sensor url="sensors.dae#Vicon" /></technique></extra><extra name="MARKER_1_2" type="attach_sensor"><technique profile="OpenRAVE"><frame_origin link="barricade_1_kinematics_model/root_1_link"><translate>-0.10215292870998383 0.13971568644046783 0.09560726583003998</translate></frame_origin><instance_sensor url="sensors.dae#Vicon" /></technique></extra><extra name="MARKER_1_3" type="attach_sensor"><technique profile="OpenRAVE"><frame_origin link="barricade_1_kinematics_model/root_1_link"><translate>0.10330633819103241 0.13897135853767395 0.09998488426208496</translate></frame_origin><instance_sensor url="sensors.dae#Vicon" /></technique></extra><extra name="MARKER_1_4" type="attach_sensor"><technique profile="OpenRAVE"><frame_origin link="barricade_1_kinematics_model/root_1_link"><translate>-0.10132928192615509 -0.141858771443367 0.09984754770994186</translate></frame_origin><instance_sensor url="sensors.dae#Vicon" /></technique></extra></articulated_system></library_articulated_systems><library_joints><joint id="root_1_joint" name="root_1_joint"><revolute sid="axis0"><axis>0 0 1</axis></revolute></joint></library_joints><library_physics_models><physics_model id="barricade_1_physics_model" /></library_physics_models><library_physics_scenes><physics_scene id="barricade_1_physics_scene"><instance_physics_model sid="inst_barricade_1_physics_model" url="#barricade_1_physics_model" /><technique_common /></physics_scene></library_physics_scenes><scene>
    <instance_visual_scene url="#Scene" />
  <instance_physics_scene url="#barricade_1_physics_scene" /><instance_kinematics_scene sid="inst_barricade_1_kinematics_scene" url="#barricade_1_kinematics_scene"><bind_kinematics_model node="barricade_1"><param>barricade_1_kinematics_scene@barricade_1_motion@barricade_1_kinematics@inst_barricade_1_kinematics_model</param></bind_kinematics_model><bind_joint_axis target="root_1/transform"><axis><param>barricade_1_kinematics_scene@barricade_1_motion@barricade_1_kinematics@inst_barricade_1_kinematics_model@inst_root_1_joint@axis0</param></axis><value><param>barricade_1_kinematics_scene@barricade_1_motion@barricade_1_kinematics@inst_barricade_1_kinematics_model@inst_root_1_joint_value</param></value></bind_joint_axis></instance_kinematics_scene></scene>
</COLLADA>