#VRML V2.0 utf8


Group {
  children 
    Group {
      children [ 
        Group {
          children 
            Transform {
              translation -0 0 -0
              rotation 0 0 1  0
              scale 1 1 1
              scaleOrientation 0 0 1  0
              children 
                Transform {
                  translation -0.0022220891 0.058291059 0.043123409
                  rotation 0 0 -1.0000542  0.012467936
                  scale 1 0.070000015 0.039500002
                  scaleOrientation 0 0 1  0
                  children 
                    Shape {
                      appearance 
                      Appearance {
                        material 
                        Material {
                          diffuseColor 0.5 0.5 0.5

                        }

                      }
                      geometry 
                      IndexedFaceSet {
                        coord 
                        Coordinate {
                          point [ -1 -1 -1,
                              -1 1 -1,
                              1 1 -1,
                              1 -1 -1,
                              -1 -1 1,
                              -1 1 1,
                              1 1 1,
                              1 -1 1 ]

                        }
                        normal 
                        Normal {
                          vector [  ]

                        }
                        coordIndex [ 4, 5, 1, -1, 5, 6, 2, -1,
                            6, 7, 3, -1, 7, 4, 0, -1,
                            0, 1, 2, -1, 7, 6, 5, -1,
                            0, 4, 1, -1, 1, 5, 2, -1,
                            2, 6, 3, -1, 3, 7, 0, -1,
                            3, 0, 2, -1, 4, 7, 5 ]
                        ccw TRUE
                        solid FALSE
                        convex TRUE
                        creaseAngle 0

                      }

                    }

                }

            }

        },
          
        Group {
          children 
            Transform {
              translation 0.98402888 -0.01536339 0.089380972
              rotation 0 0 1  0
              scale 1 1 1
              scaleOrientation 0 0 1  0

            }

        },
          
        Group {
          children 
            Transform {
              translation -0.9921599 0.1316355 0.084964953
              rotation 0 0 1  0
              scale 1 1 1
              scaleOrientation 0 0 1  0

            }

        },
          
        Group {
          children 
            Transform {
              translation -0.99089408 0.01308288 0.080913313
              rotation 0 0 1  0
              scale 1 1 1
              scaleOrientation 0 0 1  0

            }

        },
          
        Group {
          children 
            Transform {
              translation 0.9849062 0.096567869 0.084446467
              rotation 0 0 1  0
              scale 1 1 1
              scaleOrientation 0 0 1  0

            }

        } ]

    }

}
